Week 10
…
Analysis will be done filtering for joy words. Next, lets they use filter() again in the data frame with the text from the books for the words from Emma and then use inner_join() to perform the sentiment analysis.

nrc_joy <- get_sentiments("nrc") %>% 
  filter(sentiment == "joy")

(emma_tidy<- tidy_books %>%
  filter(book == "Emma") %>%
  inner_join(nrc_joy) %>%
  count(word, sort = TRUE))

## Joining, by = "word"

## # A tibble: 303 x 2
##    word        n
##    <chr>   <int>
##  1 good      359
##  2 young     192
##  3 friend    166
##  4 hope      143
##  5 happy     125
##  6 love      117
##  7 deal       92
##  8 found      92
##  9 present    89
## 10 kind       82
## #  with 293 more rows
…
This grouping shows all authors who have a book written in English (language==en), which contains text (has_text == TRUE). Summary shows number of books available:

# group by authors

(tidy_books_authors <- y %>%
  filter(language=="en", has_text == TRUE) %>%
  group_by(author) %>%
  summarize(n=n()) %>%
  arrange(desc(n)))

## # A tibble: 13,080 x 2
##    author                                  n
##    <chr>                               <int>
##  1 Various                              2855
##  2 <NA>                                 2835
##  3 Anonymous                             583
##  4 Lytton, Edward Bulwer Lytton, Baron   215
##  5 Shakespeare, William                  176
##  6 Ebers, Georg                          164
##  7 Twain, Mark                           147
##  8 Kingston, William Henry Giles         132
##  9 Parker, Gilbert                       132
## 10 Fenn, George Manville                 128
## #  with 13,070 more rows
…
